plotly
…
We want to know as the times of reorder increase, will the days before reorder be more fixed (the reason can be, for example, the customers have learned how long it will take to consume the prior-ordered stuff). We will use orders of "Large Alfresco Eggs" to make a plot, because in general the amount of eggs used is fairly constant among long period, and the "Large Alfresco Eggs" is the best seller .

#find out the best seller in "eggs"

instacart %>%
  select(aisle, product_name) %>% 
    filter( 
    aisle == "eggs"
  ) %>% 
  group_by(product_name) %>% 
  count() %>% 
  arrange()

## # A tibble: 120 x 2
## # Groups:   product_name [120]
##    product_name                          n
##    <chr>                             <int>
##  1 100% Egg Whites                      10
##  2 100% Liquid Egg Whites               77
##  3 All Natural 100% Egg Whites           2
##  4 All Whites 100% Egg Whites          176
##  5 All Whites 100% Liquid Egg Whites    94
##  6 Brown Eggs                          160
##  7 Brown Extra Large Grade AA Eggs      81
##  8 Brown Fertile Jumbo Grade AA Eggs    16
##  9 Brown Fertile Large Grade AA Eggs   187
## 10 Brown Large Eggs Grade A              9
## # ... with 110 more rows
…
